…
```r
if (!require("BiocManager", quietly = TRUE))
    install.packages("BiocManager")

BiocManager::install("EnsemblGenomes")
```

## Usage

```r
library(EnsemblGenomes)

list_ensembl_species('vertebrate')
##  # A tibble: 324 × 6
##     species                          url                                                                            taxon      collection release     date        
##     <chr>                            <glue>                                                                         <chr>      <lgl>      <chr>       <chr>       
##   1 acanthochromis_polyacanthus      https://ensembl.org/acanthochromis_polyacanthus/Info/Annotation#genebuild      vertebrate NA         release-112 2024-04-23 …
##   2 accipiter_nisus                  https://ensembl.org/accipiter_nisus/Info/Annotation#genebuild                  vertebrate NA         release-112 2024-04-23 …
##   3 ailuropoda_melanoleuca           https://ensembl.org/ailuropoda_melanoleuca/Info/Annotation#genebuild           vertebrate NA         release-112 2024-04-23 …
##   4 amazona_collaria                 https://ensembl.org/amazona_collaria/Info/Annotation#genebuild                 vertebrate NA         release-112 2024-04-23 …
##   5 amphilophus_citrinellus          https://ensembl.org/amphilophus_citrinellus/Info/Annotation#genebuild          vertebrate NA         release-112 2024-04-23 …
##   6 amphiprion_ocellaris             https://ensembl.org/amphiprion_ocellaris/Info/Annotation#genebuild             vertebrate NA         release-112 2024-04-23 …
##   7 amphiprion_percula               https://ensembl.org/amphiprion_percula/Info/Annotation#genebuild               vertebrate NA         release-112 2024-04-23 …
##   8 anabas_testudineus               https://ensembl.org/anabas_testudineus/Info/Annotation#genebuild               vertebrate NA         release-112 2024-04-23 …
##   9 anas_platyrhynchos               https://ensembl.org/anas_platyrhynchos/Info/Annotation#genebuild               vertebrate NA         release-112 2024-04-23 …
##  10 anas_platyrhynchos_platyrhynchos https://ensembl.org/anas_platyrhynchos_platyrhynchos/Info/Annotation#genebuild vertebrate NA         release-112 2024-04-23 …
##  # ℹ 314 more rows
##  # ℹ Use `print(n = ...)` to see more rows
…
