EnsemblGenomes — EnsemblGenomes • EnsemblGenomes
…
    Examples

list_ensembl_taxa()
#> # A tibble: 6 × 2
#>   taxon      url                                               
#>   <chr>      <chr>                                             
#> 1 vertebrate https://ftp.ensembl.org/pub/                      
#> 2 metazoa    https://ftp.ebi.ac.uk/ensemblgenomes/pub/metazoa/ 
#> 3 protists   https://ftp.ebi.ac.uk/ensemblgenomes/pub/protists/
#> 4 fungi      https://ftp.ebi.ac.uk/ensemblgenomes/pub/fungi/   
#> 5 plants     https://ftp.ebi.ac.uk/ensemblgenomes/pub/plants/  
#> 6 bacteria   https://ftp.ebi.ac.uk/ensemblgenomes/pub/bacteria/
list_ensembl_releases('vertebrate')
#> # A tibble: 32 × 3
#>    release     date             url                                    
#>    <chr>       <chr>            <chr>                                  
#>  1 release-112 2024-06-20 11:33 https://ftp.ensembl.org/pub/release-112
#>  2 release-111 2024-06-11 16:17 https://ftp.ensembl.org/pub/release-111
#>  3 release-110 2024-01-25 09:34 https://ftp.ensembl.org/pub/release-110
#>  4 release-109 2023-03-02 09:36 https://ftp.ensembl.org/pub/release-109
#>  5 release-108 2022-10-10 12:59 https://ftp.ensembl.org/pub/release-108
#>  6 release-107 2022-10-24 14:15 https://ftp.ensembl.org/pub/release-107
#>  7 release-106 2022-08-30 11:58 https://ftp.ensembl.org/pub/release-106
#>  8 release-105 2022-02-11 18:12 https://ftp.ensembl.org/pub/release-105
#>  9 release-104 2021-03-30 13:08 https://ftp.ensembl.org/pub/release-104
#> 10 release-103 2021-02-16 17:52 https://ftp.ensembl.org/pub/release-103
#> # ℹ 22 more rows
list_ensembl_releases('fungi')
#> # A tibble: 43 × 3
#>    release    date             url                                              
#>    <chr>      <chr>            <chr>                                            
#>  1 release-59 2024-05-23 10:28 https://ftp.ebi.ac.uk/ensemblgenomes/pub/fungi/r…
#>  2 release-58 2024-05-13 16:08 https://ftp.ebi.ac.uk/ensemblgenomes/pub/fungi/r…
#>  3 release-57 2023-06-05 14:25 https://ftp.ebi.ac.uk/ensemblgenomes/pub/fungi/r…
#>  4 release-56 2023-01-09 10:52 https://ftp.ebi.ac.uk/ensemblgenomes/pub/fungi/r…
#>  5 release-55 2023-02-15 10:25 https://ftp.ebi.ac.uk/ensemblgenomes/pub/fungi/r…
#>  6 release-54 2022-06-29 09:22 https://ftp.ebi.ac.uk/ensemblgenomes/pub/fungi/r…
#>  7 release-53 2022-03-03 22:01 https://ftp.ebi.ac.uk/ensemblgenomes/pub/fungi/r…
#>  8 release-52 2022-07-05 09:04 https://ftp.ebi.ac.uk/ensemblgenomes/pub/fungi/r…
#>  9 release-51 2021-05-05 17:03 https://ftp.ebi.ac.uk/ensemblgenomes/pub/fungi/r…
#> 10 release-50 2022-07-01 11:26 https://ftp.ebi.ac.uk/ensemblgenomes/pub/fungi/r…
#> # ℹ 33 more rows
list_ensembl_species('vertebrate', release = 'release-110')
#> # A tibble: 317 × 6
#>    release     taxon      collection species                         date  url  
#>    <chr>       <chr>      <lgl>      <chr>                           <chr> <glu>
#>  1 release-110 vertebrate NA         acanthochromis_polyacanthus     2023… http…
#>  2 release-110 vertebrate NA         accipiter_nisus                 2023… http…
#>  3 release-110 vertebrate NA         ailuropoda_melanoleuca          2023… http…
#>  4 release-110 vertebrate NA         amazona_collaria                2023… http…
#>  5 release-110 vertebrate NA         amphilophus_citrinellus         2023… http…
#>  6 release-110 vertebrate NA         amphiprion_ocellaris            2023… http…
#>  7 release-110 vertebrate NA         amphiprion_percula              2023… http…
#>  8 release-110 vertebrate NA         anabas_testudineus              2023… http…
#>  9 release-110 vertebrate NA         anas_platyrhynchos              2023… http…
#> 10 release-110 vertebrate NA         anas_platyrhynchos_platyrhynch… 2023… http…
#> # ℹ 307 more rows
…
